"인덱스키값","html","제목","내용","등록일","업데이트일","제작자이름","날짜","추천영상","내용","영상업로드정보","대분류","소분류"
"62","","","ㅣㅣㅣ","2012-10-30 22:01:00.0","","","","","","","",""
"50","html1","예술나눔프로젝트 - 나의 노래는 나의 힘 3부","<DIV style='WIDTH: 533px; OVERFLOW: hidden' id=detail_content class=contents><FONT size=2>아르바이트로 용돈을 벌어 생활하면서도 한 부모 가정에서 살아가면서도 얼굴에 웃음 가득한 아이들이 있다. 그 이름 하여 ‘해피뮤지컬스쿨’의 아이들! <BR><BR>‘해피뮤지컬스쿨’은 꿈은 있으되 경제적으로 어려운 청소년들에게 뮤지컬을 배울 수 있는 기회를 제공하는 자선 학교다. 그러나 지난 9월 ‘해피뮤지컬스쿨’을 떠나 독립해야 되는 시간이 다가왔는데. <BR><BR>이 때 아이들의 마지막 공연을 유심히 지켜보던 사람이 있었다. 그는 뮤지컬계의 국민 배우 남경주. 마지막 공연에서 슬기(17)와 민지(17) 그리고 친구들의 꿈을 본 남경주는 자신이 가지고 있는 모든 힘을 다해 ‘해피뮤지컬스쿨’ 아이들의 ‘꿈’을 완성시키고 싶은 또 다른 ‘꿈’이 생겼다. <BR><BR>이 아이들에게 뮤지컬은 이제 끝이 아니라 시작이라는 것을 알리기 위해 ‘크리스마스 공연’을 준비하는 남경주. 같은 꿈을 향해가는 남경주와 해피뮤지컬스쿨 아이들의 가장 행복한 뮤지컬 공연이 이제 그 막을 올린다.<BR><BR>♣ ‘끼’로 뭉친 아이들 뮤지컬을 ‘꿈’꾸다!아르바이트로 용돈을 벌어 생활하면서도 한 부모 가정에서 외롭게 살아가면서도 춤추고 노래하고 연기할 때가 가장 행복하다는 청소년들이 있다. 뮤지컬에 대한 열정으로 멋진 무대를 꿈꾸는 '해피뮤지컬스쿨' 아이들이 그 주인공들!<BR><BR>'해피뮤지컬스쿨'은 꿈과 끼는 있으되 경제적으로 어려운 청소년들에게 문화예술 배움의 기회를 제공하는 자선 학교다. 아이들은 '해피뮤지컬스쿨'을 통해 뮤지컬 배우란 희망을 조심스레 품게 되었고 지난 9월 졸업 작품을 올렸다. 하지만 그 공연은 이후는 기약이 없었는데... <BR><BR>♣ 멘토 남경주의 ‘아주 특별한 크리스마스 선물!<BR><BR>’그런 아이들의 공연을 따뜻하게 바라보는 한 시선이 있었으니 바로 뮤지컬계의 국민 배우 남경주씨다. 아이들의 공연을 지켜 본 남경주씨는 12월에 있을 자신의 공연에 아이들을 함께 세우기로 결심한다. <BR><BR>고양 어울림극장에서 열릴 '남경주와 함께 하는 아주 특별한 크리스마스' 공연이었다. 뮤지컬 배우를 꿈꾸는 아이들이 공연에 서기까지의 갈등과 성장 모습을 다룬 특별한 무대는 해피뮤지컬스쿨 아이들의 이야기이자 꿈에 한발 더 나아가는 도약의 발판이었다. <BR><BR>♣ 뮤지컬 그 꿈을 향한 땀방울! 1200석이나 되는 공연장에서 프로배우들과 함께 일반 관객들에게 선보일 무대를 준비하는 과정은 결코 만만치가 않다. 연기 노래 춤까지 그야말로 3박자가 어우러져 완성되는 뮤지컬. <BR><BR>각 분야별로 따로 연습을 하고 학교 공부까지 병행해야 하니 아이들은 몸이 두 개라도 모자랄 지경. 거기에다 어려운 가정형편 탓에 당당하게 자신을 표현하는 것조차 익숙하지 않은 아이들에게 자신감을 끌어내기란 쉽지가 않다. 처음 의욕은 어디로 갔는지 잦은 지각에 지체 되는 연습. <BR><BR>아직 어린 청소년들에게 이런 큰 공연은 무리였던 걸까? <BR><BR>공연을 코앞에 두고 점점 지쳐가는 아이들을 보며 결국 선생님들이 폭발하게 되는데..과연 해피뮤지컬스쿨 아이들은 '남경주와 함께하는 아주 특별한 크리스마스' 만들기에 성공할 수 있을까? <BR><BR>그들의 여정을 함께 해 본다.</FONT> </DIV>","2011-12-01 23:05:00.0","2012-02-15 11:13:44","EBS","2010/08/11","0","꿈꾸는 뮤지컬","201201091938586682|3|5800032087063.wmv|105688098","교육","예술교육"
"53","html1","다큐프라임 : 상상에 빠지다 1부","<DIV style='WIDTH: 533px; OVERFLOW: hidden' id=detail_content class=contents><FONT size=2>타임머신 우주 엘리베이터 100세 이상 살 수 있는 생명연장 아파트. 혹시 불가능한 상상이라고 생각하시는가! 모든 이들에겐 불가능한 상상이지만 어떤 이에겐 가능한 상상이었기에 탄생한 비행기와 우주선 인터넷과 무선 전화 등. <BR><BR>오늘날 우리가 누리고 있는 모든 기술문명은 어떤 이들의 ‘상상’에서 시작됐다. 그렇다면 지금 이 순간 동 시대를 살아가는 우리들의 상상은 어떤 모습일까? <BR><BR>미 NASA의 후원을 받아 2010년 완성을 목표로 진행중인 우주로 가는 엘레베이터 프로젝트! <BR><BR>아인슈타인의 상대성 이론을 토대로 과거로 정보를 보내는것이 가능하다고 주장하는 타임머신 연구가! <BR><BR>잠 자는 근육을 깨워 100세까지 살 수 있는 불편한 아파트를 건설한 유명 건축가에 이르기까지!! <BR><BR>당신이 한 번쯤은 상상해봤을 혹은 단 한 번도 상상해보지 못한 것들을 현실로 만들어 가는 사람들. 세계는 지금 어떤 상상을 하고 있으며 그 상상으로 어떤 미래를 꿈꾸고 있는지 살펴본다.</FONT> </DIV>","2011-12-01 23:05:00.0","2012-02-15 11:29:02","EBS","2010/08/11","0","상상! 미래를 말하다","201201091953140438|4|5800032087155.wmv|110049680","교육","예술교육"
"51","html1","영국의 대안학교 - 학생이 주인이다!","<DIV style='WIDTH: 693px; OVERFLOW: hidden' id=detail_content class=contents>영국의 대안학교 샌즈 스쿨 탐방 </DIV>","2011-12-01 23:05:00.0","2012-02-15 11:23:23","EBS","2010/08/11","1","어린이 공화국 샌즈 스쿨","201201091948259553|3|5800032087070.wmv|61625902","교육","예술교육"
"56","html1","MBC프라임 - 신 문화혁명 모든 삶은 예술이다(예고)","<STRONG>기획의도<BR><BR>“세상에서 가장 위대한 예술 작품은 우리의 삶 자체이다” - 에릭부스 </STRONG><BR>우리 사회 뿐 아니라 문명이 발달하면서 인간은 같은 고민을 해왔다. 서구에서는 사<BR>회 구성원의 행복한 삶을 위해 70년대부터 ‘심미적 교육’에 주목해왔다. 21세기 개인<BR>에게 인간이 존엄하다는 사실을 일깨워주는 것은 철학도 정치도 아닌 예술 미적체<BR>험예술교육이었다. 미적체험예술교육은 예술을 보고 즐기고 표현하면서 진짜 자기 <BR>자신의 모습을 발견하고 삶의 행복을 찾아가는 것이다. 거기에는 정답도 없고 경쟁<BR>도 없으며 개개인의 기분과 감성이 가장 중요하다. <BR>우리나라에서도 몇 년 전부터 어린아이부터 노인에 이르기까지 전 연령대를 대상으<BR>로 미적체험예술교육이 시작됐다. 문화체험이나 하겠지 하고 반신반의하는 마음으<BR>로 시작한 사람들은 대부분 이 교육과정을 통해 놀라운 변화를 겪는다. 자신의 삶을 <BR>새로운 관점에서 시작할 수 있는 계기를 얻기 때문이다.&nbsp; <BR><STRONG><BR>우리 삶에서 진정한 예술의 의미와 미적 체험 교육의 힘을 살펴본다.&nbsp; <BR><BR><BR><BR><BR>주요내용<BR><BR>1. 이상한 수업이 시작되다</STRONG><BR>서울의 한 고등학교. 기존의 고등학교 수업과는 조금 낯선 수업을 하고 있다. 어수선<BR>하고 무질서해보이지만 자세히 들여다보면 한 방향으로 흘러가고 있는 이 수업은 미<BR>적체험예술수업이다. 사진 연극 그리고 국악 이 세 가지 요소가 결합된 수업. 이 수<BR>업을 진행하는 전문교육예술가(Teaching Astist)들은 아이들이 한번쯤 자신을 되돌<BR>아보길 소망한다. 처음엔 동요하지 않았던 아이들의 마음속에 잔잔한 물결이 일어날<BR>까. <BR><STRONG><BR>2. 교육 예술에서 돌파구를 찾다</STRONG><BR>미적체험예술교육은 외국에선 이미 많이 알려진 수업방식이다. 뉴욕의 링컨센터에<BR>서 운영되는 상상력고등학교에서는 모든 과목을 예술과 결합시켜 교육받는다. 이러<BR>한 수업은 자라나는 아이들 청소년뿐만이 아닌 다른 모든 사람들에게 지대한 영향<BR>을 미친다. 이러한 예술교육의 미풍은 우리나라에도 조금씩 불어오고 있다. 미국의 <BR>미적체험예술교육과 우리나라의 미적체험에술교육을 살펴보고 예술이 교육과 맞닿<BR>았을때 어떠한 효과를 내고 영향을 주는지 알아본다. <BR><STRONG><BR>3. 예술가 무대를 내려오다</STRONG><BR>예술을 그저 보기만 하던 시대는 지났다. 예술도 이제 소통하고 공유하길 바란다. <BR>TA과정에 지원하는 수많은 예술가 시골에서 청소년 오케스트라를 운영하는 지휘<BR>자 문화소외지역 소년원을 찾아가는 연극무대 등 점점 더 많은 예술가들이 일반인<BR>에게 영감을 주고 자신을 표현하게 해주는 미적체험예술교육이나 소외된 관객을 찾<BR>아가는 맞춤형 공연에 참여하고 있다. 이들이 화려한 무대를 내려와 미적체험교육<BR>에 참여하는 진정한 이유는 무엇일까? <BR><STRONG><BR>4. 미적체험예술교육이 삶을 윤택하게 만든다</STRONG><BR>인생을 끝자락에서 ‘이제야 인생이 찾았다’ 라고 외치는 사람들이 있다. 자꾸 잊어버<BR>리게 되는 대사를 외우고 외워서 연극을 해내고 같은동작을 수십 수백번 반복해 발<BR>레를 해내는 그들은 평균연령 70대의 노인들이다. 남들이 보기에는 조금 어설퍼보일<BR>지는 모르지만 그들의 무대가 의미가 있는 것은 각자의 삶이 고스란히 녹아있기 때<BR>문이다. 예술을 통해 할머니 할아버지들은 부질없다고 느끼던 자신의 인생이 가치있<BR>다는 것을 깨달았다. <BR>미적체험예술 교육을 통해 삶의 행복과 의미를 찾아가는 라반골 사람들을 만나본<BR>다.&nbsp;&nbsp;&nbsp;","2011-12-01 23:05:00.0","2012-02-15 11:40:56","서울문화재단","2012/01/26","1","서울창의예술학교","201201092006018120|2|c_MBC프라임_예고.avi|29319896","교육","예술교육"
"55","html1","다큐프라임 : 상상에 빠지다 3부","<DIV style='WIDTH: 533px; OVERFLOW: hidden' id=detail_content class=contents><FONT size=2>“손을 대지 않고 냉장고 문을 열 수 있는 방법을 상상하시오.”위 질문에 당신은 어떤 대답을 내 놓겠는가. 최근 영재를 판단하는 기준으로 상상력이 새롭게 부각되고 있다. 영재 아동들이 일반 아동들에 비해 상상력이 높은 것으로 나타나면서 앞으로의 교육 화두가 상상력으로 맞춰지고 있는 것이다. <BR><BR>- 아이의 상상력 어른의 상상력이 필요합니다 - 그렇다면 상상력이 좋은 아이들은 보통의 아이들에 비해 과연 어떤 차이가 있는 것일까? <BR><BR>아이의 상상력을 자극하는 부모의 행동은 어떤 것일까? <BR><BR>초등학교 250명을 대상으로 한 설문조사와 상상력에 따른 아동들의 발달 사항 관찰 실험! 그리고 부모와 아이의 일상생활 관찰 실험까지!! 다큐 프라임의 카메라가 학교와 유치원을 찾아가 우리 아이의 상상력을 키워주는 방법을 찾아본다. - 상상력도 배울 수 있다 - 창의력 육성교육이 유명한 영국! <BR><BR>그 곳에 그림으로 전 과목을 수업하는 프라이어리 학교가 있다. 그림 속 세상을 상상하며 질문하고 그 질문을 토대로 수학과 국어 음악은 물론 역사까지 배워나가는 프라이어리 학교 아이들. 더불어 선생님의 역할을 새롭게 제시하고 있는 기노쿠니 학교의 교육법까지.. <BR><BR>새로운 방법으로 아이들의 상상력을 자극하고 있는 상상 수업 현장을 찾아가본다.</FONT> </DIV>","2011-12-01 23:05:00.0","2012-02-15 11:31:37","EBS","2010/08/11","0","상상도 배울 수 있다","201201091957026790|1|5800032087186.wmv|110137770","교육","예술교육"
"52","html1","영국의 대안학교 - 숙제도 시험도 성적표도 없다!","<DIV style='WIDTH: 693px; OVERFLOW: hidden' id=detail_content class=contents>영국의 대안학교 루돌프 슈타이너 탐방 </DIV>","2011-12-01 23:05:00.0","2012-02-15 11:24:39","EBS","2010/08/11","0","루돌프 슈타이너 학교","201201091950032348|0|5800032087087.wmv|63061466","교육","예술교육"
"48","html1","예술나눔프로젝트 - 나의 노래는 나의 힘 1부","<DIV style='WIDTH: 533px; OVERFLOW: hidden' id=detail_content class=contents><FONT size=2>일곱 살 때 부모님의 이혼을 경험하며 일찍 철이 들어버린 19살 성모. <BR><BR>어려운 가정 형편에도 기타를 친구삼아 살아온 18살 승진. 이들은 가난한 고교 록밴드‘칠리파우더’의 멤버다. 고등학생 신분으로 Rock을 한다는 손가락질을 받지만 음악이 있어 행복한 칠리파우더 아이들. 그들에게 어느 날 YB의 윤도현이 찾아온다. <BR><BR>세탁소 집 아들로서 지금의 자리에 있기까지 많은 노력을 했던 윤도현은 칠리파우더 아이들에게‘락’에 대한 열정을 가르치기 시작하는데. 하지만 각자 맡은 악기의 소리만 낼 줄 알던 칠리파우더 아이들에게는 서로 하나 되기 위한 연습이 시급한 상황. 이 아이들을 통해 과거의 자신을 돌아보게 된 윤도현은 자신이 겪었던 경험을 꺼내어 주며 하나의 소리를 완성해 나가기 시작한다. 윤도현과 칠리파우더 그들은 진정 Rock으로 날 수 있을까?<BR><BR>▶ 대한민국 대표 록스타 YB 윤도현의 '이유 있는' 록 키드 육성 프로젝트!홍대의 한 오디션 현장. 유명 록밴드 YB의 윤도현은 어려운 환경에서 음악을 하는 청소년 록밴드들을 위해 특별한 이벤트를 준비한다. 오디션에서 1등한 밴드에게 11월에 있을 YB의 콘서트에서 오프닝게스트로 설 수 있는 자격을 주는 것! <BR><BR>음악을 향한 열정 뛰어난 자질에도 불구하고 여의치 않은 형편으로 그 꿈을 펼칠 수 없는 이들에게 주어진 절호의 기회였다. 자신의 인생경험 음악의 노하우까지 전수하겠다고 밝힌 윤도현과 그 행운을 잡은 고교연합밴드 &lt;칠리파우더&gt;.<BR><BR>▶ 허름한 도심 그 곳에 가득 차오르는 '음악'을 향한 열정!부모님의 이혼과 어려운 가정형편 때문에 일찍 철이 들어버린 &lt;칠리파우더&gt; 보컬 성모는 태어나 처음으로 음악을 반대하는 엄마를 거역하는 중이다. 고3 수험생인 아들이 음악에 빠져 있는 것이 탐탁지 않은 엄마. <BR><BR>그런 엄마에게 11월에 멋진 무대를 선물하고 싶은 성모의 열망은 예기치 못한 벽에 부딪히게 되는데..&lt;칠리파우더&gt;의 유일한 작곡가 승진이. 승진이는 동네 재개발로 인해 살던 집에서 쫓겨나 한 겨울 갑작스레 이사를 해야만 했다. YB오프닝 무대에서 자작곡을 선보여야 한다는 부담감 꺾을 수 없는 음악적 자존심으로 인한 팀 내 갈등. 기타 피크 하나 움켜쥐고 사는 승진이는 이 고비를 어떻게 넘기게 될는지..<BR><BR>▶ 하나의 점이 되기 위한 그들만의 동苦동ROCK!'다섯 개의 원이 서로 부딪힌다. 각각의 원들이 서로 깎이고 깎여 결국 하나의 원에서 점으로 되는 순간! <BR><BR>그 순간이야말로 록 밴드가 지향해야 할 무대'서로를 이해하지 못해 삶이 힘겨워서 세상에 등 돌려서 그동안 각각의 원으로 지내왔던 아이들. 학교 가는 시간을 제외하고는 연습실에서 생활하는 &lt;칠리파우더&gt;가 두 달간 풀어가야 할 숙제였다. <BR><BR>YB의 단독 콘서트 오프닝 게스트는 사실상 그들에게 버거운 목표다. 열정을 따라가기에는 아직 턱 없이 모자란 실력 음악의 색깔을 맞춰가는 과정에서 생긴 불화와 거리 공연의 실패 실력이 안 되면 결코 무대에 설 수 없다는 윤도현의 따끔한 충고에 &lt;칠리파우더&gt;의 좌절은 깊어만 간다. <BR><BR>꿈의 무대를 향한 &lt;칠리파우더&gt;의 고군분투기! 과연 그들은 음악이라는 날개를 달고 비상할 수 있을까?</FONT> </DIV>","2011-12-01 23:05:00.0","2012-02-15 10:45:46","EBS","2010/08/11","0","열정 록으로 날다!","201201091909444715|0|5800032087056.wmv|106532970","교육","예술교육"
"49","html1","예술나눔프로젝트 - 나의 노래는 나의 힘 2부","<P>‘모스틀리 필하모닉 오케스트라’의 지휘자 박상현. 그는 성악가와 지휘자라는 두 가지 길을 걸으며 깨달은 음악적 경험을 자신과 같은 길을 걷는 후배들에게 나누어 주는 것이 꿈이다. 1년에 100회 이상 공연 조수미 정명화 장한나 김동규 신영옥 등 국내외 정상급 음악가들과의 협연으로 유명한 ‘모스틀리 필하모닉 오케스트라’의 지휘자 박상현. 과거 성악을 전공했던 그가 지휘자가 되기까지 남모를 성장의 아픔이 있었기에 후배들에게 제대로 된 음악의 길을 가르쳐 주고 싶었다. 그의 순수한 마음이 순수한 아이들을 만났다. 클래식의 순수함과 닮은 강원도 ‘영월 청소년 합창단’. 전문적인 교육을 받아 본 적 없는 영월 청소년 합창단은 박상현 지휘자와 함께 ‘예술의 전당’에 서기 위한 본격적인 연습에 돌입한다. 그 중에서도 치열한 경쟁을 뚫고 지휘자로 선발 된 인영(18)은 음악을 엄마라고 생각하며 자라온 열혈 음악도. 하지만 어려운 가정 형편과 영월 지역의 보수적인 정서로 인해 많은 상처를 받아왔다. 그래도 음악이 있다면 언제나 행복한 아이 인영. 그런 인영이와 음악이 주는 치유의 힘을 믿는 박상현 지휘자의 만남. 그들이 만들어가는 순수한 화음의 세계가 펼쳐진다. <BR><BR>♬ “음악은 엄마 같은 거예요” 음악을 사랑하는 산골 소녀 정인영 30여명의 아이들 30가지의 개성... 불꽃 튀는 지휘자 오디션에서 머라이어 캐리의 ‘Hero’를 부르며 지휘자로 선발된 18살 소녀 정인영! 남다른 끼와 재주로 어린 시절부터 ‘음악도’의 꿈을 안고 살아왔지만 이혼 후 엄마 혼자 생계를 책임지는 빠듯한 가정 형편과 보수적인 지역 정서 때문에 ‘튀는 아이’일 수밖에 없는 인영이는 학교생활마저 평탄치 못하다. 그렇지만 음악이 있다면 언제나 행복하다는 인영. 뜻밖에 찾아온 ‘지휘자’라는 역할을 잘 해내기 위해 박상현 지휘자와 함께 훈련을 시작한다. 순수한 음악가와 미래의 음악가의 만남. 인영이는 박상현 지휘자와의 만남을 통해 가슴속에 숨어있는 영웅을 깨울 수 있을까. <BR><BR>♬ 불협화음(不協和音)의 벽을 넘어라! 평소 노래를 좋아하지만 클래식과 관련된 전문 교육은 제대로 받아보지 못한 영월 청소년 합창단! 때문에 입도 벌리지 않고 노래하는 아이들에게 거울까지 동원해서 입 모양을 다듬는가 하면 배에 힘을 기르기 위한 운동들을 숙제로 내주는 등 갖가지 방법을 동원해서 ‘예술의 전당’ 공연을 준비한다. 과연 이들은 불협화음의 벽을 넘어 무사히 ‘예술의 전당’ 무대에 설 수 있을까? 그리고 그 속에서 진정한 마음속의 화음을 맞출 수 있을까. 청소년 시절에 찾아온 단 한 번의 기회 그 기회를 잡기 위한 아이들의 순수한 도전이 드디어 시작됐다.</P>","2011-12-01 23:05:00.0","2012-02-15 10:47:48","EBS","2010/08/11","0","클래식 순수를 만나다","201201091945333915|3|5800032087025.wmv|106342332","교육","예술교육"
"54","html1","다큐프라임 : 상상에 빠지다 2부","<DIV style='WIDTH: 533px; OVERFLOW: hidden' id=detail_content class=contents><FONT size=2>“ 매일 의사가 내게 와서 ‘당신은 이제 다 나았습니다’ 라고 말하는 상상을 하곤 했다. 그리고 내 암 세포들이 마치 벌레들이라고 생각하고 방사선을 쬐면 죽는다는 상상을 했다. 그땐 상상으로 병이 나을 거라곤 나도 생각을 못했다” - 미국 LA 폐암 완치 환자 폭스 - “ 자동차 사고로 몸을 움직일 수 조차 없었다. <BR><BR>하지만 나는 매일 5시간씩 다른 선수가 운동하는 영상을 보고 마치 내가 트랙을 직접 뛰는 것 처럼 상상 훈련을 계속 했다. “ - 미국 근대5종 올림픽 은메달리스트 메를린 킹- 우리가 상상을 하는 동안 뇌에선 과연 어떤 일이 벌어지는 것일까? <BR><BR>가짜 약을 먹고도 진짜 진통 효과를 느끼는 플라시보 효과. 상상으로 암을 치료했다고 말하는 사람들. 몸을 움직일 수 조차 없는 상황에서 상상훈련만으로 올림픽 은메달을 획득한 미국 국가대표 선수의 이야기까지... 우리가 미처 알지 못했던 상상의 놀라운 힘 그리고 뇌 속에 얽혀있는 상상의 비밀을 풀어본다.</FONT> </DIV>","2011-12-01 23:05:00.0","2012-02-15 11:30:27","EBS","2010/08/11","0","상상 그리고 뇌","201201091955368919|2|5800032087179.wmv|109301562","교육","예술교육"
"47","html1","세계의 교육현장 - 어려서부터 키운다 체코 예술초등학교","세계의 교육현장 - 어려서부터 키운다 체코 예술초등학교 <BR>제작자 : EBS","2011-12-01 23:04:00.0","2012-02-14 09:41:44","EBS","2012/02/14","0","세계의 교육현장 - 어려서부터 키운다 체코 예술초등학교","201201081807344522|3|어려서부터_기운다_체코_예술초등학교.wmv|127422508","교육","예술교육"
"46","html1","세계의 교육현장 - 체코 예술교육의 중심 콘체르바토르","세계의 교육현장 - 체코 예술교육의 중심 콘체르바토르 <BR>제작자 : EBS","2011-12-01 23:04:00.0","2012-02-14 09:40:29","EBS","2012/02/14","0","세계의 교육현장 - 체코 예술교육의 중심 콘체르바토르","201201081806079861|4|체코_예술교육의_중심_콘체르바토르.wmv|131542802","교육","예술교육"
"42","html1","세계의 교육현장 - 스웨덴의 교육현장 : 창의력의 뿌리","세계의 교육현장 - 스웨덴의 교육현장 : 창의력의 뿌리","2011-12-01 23:04:00.0","2012-02-14 09:30:50","EBS","2012/02/14","0","세계의 교육현장 - 스웨덴의 교육현장 : 창의력의 뿌리","201201081756180313|0|스웨덴_교육현장_3_창의력의_뿌리.wmv|119662203","교육","예술교육"
"44","html1","세계의 교육현장 - 스웨덴의 교육현장 :  Finn upp. 아이의 잠재력을 깨워라","세계의 교육현장 - 스웨덴의 교육현장 :&nbsp; Finn upp. 아이의 잠재력을 깨워라 <BR>제작자: EBS","2011-12-01 23:04:00.0","2012-02-14 09:36:08","EBS","2012/02/14","0","세계의 교육현장 - 스웨덴의 교육현장 :  Finn upp. 아이의 잠재력을 깨워라","201201081801573360|0|스웨덴_교육현장_1_Finn_upp._아이의_잠재력을_깨워라.wmv|122014092","교육","예술교육"
"43","html1","세계의 교육현장 - 스웨덴의 교육현장 : 창의력 손에 주목하라","세계의 교육현장 - 스웨덴의 교육현장 : 창의력 손에 주목하라 <BR>제작자 : EBS","2011-12-01 23:04:00.0","2012-02-14 09:34:49","EBS","2012/02/14","0","세계의 교육현장 - 스웨덴의 교육현장 : 창의력 손에 주목하라","201201081759479372|0|스웨덴_교육현장_2_창의력_손에_주목하라.wmv|123499632","교육","예술교육"
"45","html1","세계의 교육현장 - 행복을 가르치는 숲 속의 학교 교육도시 산티니케탄","세계의 교육현장 - 행복을 가르치는 숲 속의 학교 교육도시 산티니케탄 <BR>제작: EBS","2011-12-01 23:04:00.0","2012-02-14 09:38:59","EBS","2012/02/14","1","세계의 교육현장 - 행복을 가르치는 숲 속의 학교 교육도시 산티니케탄","201201081804449059|3|행복을_가르치는_숲속의_학교_교육도시_산티니케탄.wmv|126910737","교육","예술교육"
"60","html1","2011 지역연계 문화예술교육 프로젝트(서대문구편)","○ 프로그램 명 : 예술교육과 함께하는 우리문학 동네체험기<BR><BR>○ 그룹 명 : 꿈꾸는 언덕<BR><BR>○ 일자 : 2011.12.9(금) ~ 12.16(금) /&nbsp;17:00~18:30<BR><BR>○ 장소 : 서대문문화회관 및 연희문학창작촌<BR><BR>○ 대상 : 중학교 2~3학년<BR><BR>○ 프로그램&nbsp;<BR>&nbsp;&nbsp; - 1차시 :&nbsp;마음열기 우리&nbsp;동네 이미지 표현하기&nbsp;&nbsp; <BR>&nbsp;&nbsp; - 2차시 :&nbsp;연희문학창작촌&nbsp;공간 탐험 응원의 메시지 사진찍기<BR>&nbsp;&nbsp;&nbsp;-&nbsp;3차시 :&nbsp;우리들의 이야기 만들기1<BR>&nbsp;&nbsp; -&nbsp;4차시 : 우리들의 이야기 만들기2<BR>&nbsp;&nbsp; - 5차시 : 영상물 연극과 무용이 결합된 공연물 시연하기<BR>","2011-12-01 22:08:00.0","2012-02-28 14:18:55","서울문화재단","2011/12/09","0","예술교육과 함께하는 우리문학 동네체험기","201201222239046881|2|2011지역연계(서대문구편).wmv|891382460","교육","예술교육"
"59","html1","2011 지역연계 문화예술교육 프로젝트(금천구편)","○ 프로그램 명 : 여기서 놀아도 될까요?<BR><BR>○ 그룹 명 : 일단<BR><BR>○ 일자 : 2011.11.26(토) ~ 12.17(토) / 매주 토 / 15:00~16:30<BR><BR>○ 장소 : 금천구청 대강당 대회의실 평생교육관<BR><BR>○ 대상 : 초등학교 3~4학년 및 가족<BR><BR>○ 프로그램&nbsp;<BR>&nbsp;&nbsp; - 1차시 : 우리동네(금천)의 노동요 배우기<BR>&nbsp;&nbsp; - 2차시: 동작으로 표현하기<BR>&nbsp;&nbsp;&nbsp;-&nbsp;3차시 : 강강술래 속에 등장하는 일에 대해 알아보고 춤으로 표현하기<BR>&nbsp;&nbsp; -&nbsp;4차시 : 우리동네(금천의) 노래 만들기<BR>&nbsp;&nbsp; - 5차시 : 우리들의 시간 함께 나누기<BR>&nbsp;","2011-12-01 22:08:00.0","2012-02-28 14:12:12","서울문화재단","2011/11/26","0","여기서 놀아도 될까요?","201201222231442548|2|2011지역연계(금천구편).wmv|867406618","교육","예술교육"
"58","html1","2011 서울예술교육 파트너데이","○ 일시 : 2011.10.28(금)<BR><BR>○ 장소 : 남산예술센터<BR><BR>○ 내용 <BR>&nbsp;&nbsp;&nbsp;&nbsp; - 사전행사 : 서울지역 예술교육 관련 정보 및 창의예술교육 사례 나눔<BR>&nbsp;&nbsp;&nbsp;&nbsp; - 본행사 : 포럼 및 네트워킹 파티","2011-12-01 22:08:00.0","2012-02-28 14:04:47","서울문화재단","2011/10/28","0","2011 서울예술교육파트너데이 홍보영상","201201281951464246|2|[최종] 2011 서울예술교육파트너데이.avi|180183522","교육","예술교육"
"61","html1","2011 서울창의예술학교","<P>가르치는 예술에서 경험하는 예술로...<BR><BR>&lt;서울창의예술학교&gt;는 서울을 대표하는 서울문화재단의 예술교육 통합브랜드입니다.<BR><BR>&lt;서울창의예술학교&gt;는 미적체험교육을 통해 예술적 상상력을 극대화하는 체험교육을 지향합니다.<BR><BR>&lt;서울창의예술학교&gt;는 장르 간 통합교육으로 깊이있는 예술의 발견과 다름을 이해하는 소통을 지원합니다.<BR><BR>&lt;서울창의예술학교&gt;는 서울시민 모두가 예술을 통하여 미래의 경쟁력인 상상력과 창의성을 발현할 수 있도록 다양한 문화예술 교육프로그램을 진행하고 있습니다.<BR><BR>문화와 예술을 즐기고 배우며 성장하는 미적체험 예술교육을 통해 예쑬교육의 새로운 변화를 주도하고 예술적 상상력을 극대화한 개인의 미적체험을 통해 인성의 풍요로운 발전은 물론 삶과 소통하는 새로운 방법을 제시합니다.<BR><BR>'가르치는 예술'에서 '경험하는 예술'로 &lt;서울창의예술학교&gt;는 예술교육의 혁신적인 변화를 주도합니다.</P>","2011-12-01 22:08:00.0","2012-02-28 14:24:41","서울문화재단","2011/12/31","0","2011 서울창의예술학교 홍보영상","201201222245539414|2|2011 서울창의예술학교.avi|276158112","교육","예술교육"
"57","html1","2009 서울예술교육 파트너데이","○ 일시 : 2009.9.26(토) 10:30 ~ 12:30<BR><BR>○ 장소 : 남산예술센터 예술교육관 1층 예술의 메아리<BR><BR>○&nbsp;내용&nbsp;<BR>&nbsp;&nbsp;&nbsp; - 그림자놀이(매직플레이)<BR>&nbsp;&nbsp;&nbsp; - 초청강연 : 박범신(소설가 서울문화재단 이사장)<BR>&nbsp;&nbsp;&nbsp; - 교육공연(국악누리)<BR>&nbsp;&nbsp;&nbsp; - 예술교육관 투어<BR>&nbsp;&nbsp;&nbsp; - 다과 및 나눔의 시간<BR>&nbsp;&nbsp;&nbsp;&nbsp;&nbsp;&nbsp;","2011-12-01 22:08:00.0","2012-02-28 13:56:56","서울문화재단","2009/09/26","0","2009 서울예술교육 파트너데이 홍보영상","201201222218148390|2|예술교육파트너데이 홍보영상.wmv|215664517","교육","예술교육"
"35","html1","다큐프라임-삼동초등학교 180일의 기록 2부","<SPAN style='TEXT-ALIGN: justify; LINE-HEIGHT: 16pt; FONT-FAMILY: '맑은 고딕'; LETTER-SPACING: 0pt; COLOR: #000000; FONT-SIZE: 10pt'>&nbsp;아름다운 자연환경 속에 위치한 삼동초등학교는 문화 예술꽃 씨앗학교로써 오케스트라를 포함 여러 가지 문화예술 활동을 하는 학교다. 하지만 우리가 만난 삼동 초등학교 아이들은 공부에 흥미가 없고 표현력이 떨어지며 무엇보다 정서적으로 안정되지 않은 아이들이다.</SPAN><BR> <P style='TEXT-ALIGN: justify; LINE-HEIGHT: 160%; TEXT-INDENT: 0pt; MARGIN: 0pt; FONT-FAMILY: '맑은 고딕'; COLOR: #000000; FONT-SIZE: 10pt'><SPAN style='TEXT-ALIGN: justify; LINE-HEIGHT: 16pt; FONT-FAMILY: '맑은 고딕'; LETTER-SPACING: 0pt; COLOR: #000000; FONT-SIZE: 10pt'>&nbsp;&nbsp;이런 아이들을 위한 자문단의 솔루션이 내려지고 남해에서는 EBS와 삼동초등학교 공동 교육실험 프로젝트 결의식을 갖고 본격적인 프로젝트가 시작된다. </SPAN></P><BR> <P style='TEXT-ALIGN: justify; LINE-HEIGHT: 160%; TEXT-INDENT: 0pt; MARGIN: 0pt; FONT-FAMILY: '맑은 고딕'; COLOR: #000000; FONT-SIZE: 10pt'><SPAN style='TEXT-ALIGN: justify; LINE-HEIGHT: 16pt; FONT-FAMILY: '맑은 고딕'; LETTER-SPACING: 0pt; COLOR: #000000; FONT-SIZE: 10pt'>&nbsp;&nbsp;그리고 삼동초등학교 교무부장 김수정 선생님과 남해 교육청 김환재 장학사가 다시 한 번 아키타를 방문. 교육자의 시선으로 아키타의 교육방법과 철학을 체험한다.</SPAN></P><BR> <P style='TEXT-ALIGN: justify; LINE-HEIGHT: 160%; TEXT-INDENT: 0pt; MARGIN: 0pt; FONT-FAMILY: '맑은 고딕'; COLOR: #000000; FONT-SIZE: 10pt'><SPAN style='TEXT-ALIGN: justify; LINE-HEIGHT: 16pt; FONT-FAMILY: '맑은 고딕'; LETTER-SPACING: 0pt; COLOR: #000000; FONT-SIZE: 10pt'>&nbsp;&nbsp;본격적인 기초학습과 공부습관 다지기에 들어간 선생님들과 조금씩 변화하는 아이들. 그 때 제작진은 아이들의 다른 문제점에 봉착하게 된다.</SPAN></P>","2010-12-04 23:06:00.0","2011-05-16 15:17:54","EBS","2009/12/22","","삼동초등학교 180일의 기록 2부 기적의 조건","201105140601221377|4|다큐 프라임-삼동초등학교 180일의 기록_2부.wmv|101638168","교육","예술교육"
"37","html1","다큐 프라임-예술 일상을 만나다 1부","<FONT size=2>1부 ‘공간을 살리는 예술’에서는 작품과 시민들의 뜨거운 교류가 이뤄지고 있는 나라 영국을 찾았다. 런던은 2012년 올림픽을 앞두고 공공미술에 대한 관심과 지원을 아끼지 않으며 몇 년 사이 새롭게 부활하고 있는 현대미술의 근거지다. 삭막한 빌딩 숲에 포위된 공간에서 예술이 새로운 숨을 불어넣는 현장을 고스란히 담았다. 런던 시민의 열린 광장으로 각종 축제와 집회가 열리는 트라팔가 광장. 현대미술 작품이 서있어야 할 기념비 좌대에 곰 인형 탈을 쓰거나 체조를 하고 피켓을 들고 있는 사람들이 올라선다. 그들의 모습은 전 세계로 24시간 생중계되고 있다. 바로 영국의 유명 조각가인 안토니 곰리(Anthony Gormley)의 예술 프로젝트‘ We and Other’다. 사전에 인터넷으로 뽑힌 2400명이 한 시간 동안 받침대 위 주인이 된다.</FONT>  <P style='TEXT-ALIGN: justify; LINE-HEIGHT: 160%; TEXT-INDENT: 0pt; MARGIN: 0pt; FONT-FAMILY: '돋움'; COLOR: #000000; FONT-SIZE: 11pt'><BR></P> <P style='TEXT-ALIGN: justify; LINE-HEIGHT: 160%; TEXT-INDENT: 0pt; MARGIN: 0pt; FONT-FAMILY: '돋움'; COLOR: #000000; FONT-SIZE: 11pt'><SPAN style='TEXT-ALIGN: justify; LINE-HEIGHT: 17.6pt; FONT-FAMILY: '돋움'; LETTER-SPACING: 0pt; COLOR: #000000; FONT-SIZE: 11pt'><FONT size=2>“시간과 사람들의 삶을 이용해서 만든 조각입니다. 살아있는 기념비가 되어 자신이 누구인지에 대해 생각할 수 있는 기회가 될 것입니다.” 곰리의 바람대로 참가자는 물론 그를 지켜보는 친구 관광객 시민들의 반응이 즉각적이다. 우리의 삶 예술이 어떤 것인지 예술의 경계를 짓는 요소 등 끝없는 질문과 대화가 오간다. 예술품을 올렸을 뿐인데 사람들은 세상과의 자신과의 소통에 열중한다. 안토니 곰리는 자신의 몸을 형상한 금속 작품으로 사색의 화두를 던져 조각에 철학을 접목시킨 유명 작가다. 살아있는 몸이 바깥세상과 소통할 수 있는 유일한 도구라 여기고 자신을 둘러싸고 있는 공간과의 관계를 끊임없이 탐구하고 실험한다. 전원도시 캠브리지에서 열린 곰리의 개인조각전에서도 그를 엿볼 수 있다. 갤러리 밖으로 나가 사람들이 지나 다니는 다리와 건물 위에 출현한 조각들. 그를 바라보는 사람들은 수수께끼처럼 작품이의미하는 바를 해독해 가며 감상한다.</FONT></SPAN></P>","2010-12-04 23:06:00.0","2011-05-16 15:24:28","EBS","2009/10/12","","공간을 살리는 예술","201105140607269292|1|다큐 프라임-예술 일상을 만나다(HD)_1부.wmv|106527194","교육","예술교육"
"38","html1","다큐 프라임-예술 일상을 만나다 2부","<FONT size=2>현대미술이 우리에게 전하고 싶은 것은 어떤 것이며 작가의 사적인 생각과 경험에서 비롯된 작업이 어떤 과정을 통해 공적인 영역에 들어서는가&nbsp; 그 물음의 답을 2부 ‘아주 사적인 아주 공적인’에서 국내작가를 만나 풀어본다.<BR></FONT> <P style='TEXT-ALIGN: justify; LINE-HEIGHT: 160%; TEXT-INDENT: 0pt; MARGIN: 0pt; FONT-FAMILY: '돋움'; COLOR: #000000; FONT-SIZE: 11pt'><SPAN style='TEXT-ALIGN: justify; LINE-HEIGHT: 17.6pt; FONT-FAMILY: '돋움'; LETTER-SPACING: 0pt; COLOR: #000000; FONT-SIZE: 11pt'><FONT size=2>화려하고 아름답지만 도발적인 작품을 선보여 온 배영환 작가. 낮보다 더 환한 도시의 밤 불면증에 시달리는 그는 쉽게 잠들지 못한다. 잠들지 못한 날들은 예술로 이어졌다. 제멋대로 깨어진 유리병 조각을 주워 모아 이어 붙여 만든 샹들리에는 현대인의 고독을 닮았다. 한 시절을 대변하는 물건 가구 등 평범한 것이 간직한 이야기를 재조립한다. 그와 경기도미술관 사회기관이 함께 추진하는 공공미술 프로젝트인 ‘오렌지색 도서관’은 실험정신과 나눔의 기쁨을 함께 배달하고 있다. <BR><BR>&nbsp;미술관 앞뜰에 나타난 도서관은 작지만 이동하기 쉽다. 내부가 훤히 공개되는 이 도서관은 항상 객(客)을 위해 열어두었던 우리네 소박한 사랑방과 같은 문화공간을 떠올리게 한다. 현재 탄도항에 전시되어 있는 미니 도서관은 책읽기에 불편이 많은 지역에 하나씩 기증될 예정이다. 사라져가는 것을 속도감 있게 퍼포먼스로 풀어내는 임민욱 작가도 만나본다. 허물어져가는 재래시장건물 옥상에서 자유로를 달리는 차안에서 한강을 누비는 유람선 위에서 그녀는 현재를 담아낸다. 속도가 빚어내고 빠뜨리는 풍경들 추억들을 찾아 사람들과 공유한다.</FONT> </SPAN></P>","2010-12-04 23:06:00.0","2011-05-16 15:27:39","EBS","2009/10/13","","아주 사적인 아주 공적인","201105140609359394|1|다큐 프라임-예술 일상을 만나다(HD)_2부.wmv|104405581","교육","예술교육"
"36","html1","다큐 프라임-삼동초등학교 180일의 기록_3부","미국 하버드 의대 교수 로날드 클레이먼 교수팀의 6개월 간 진행된 <BR>'아침밥 효과'연구 사례를 통해 아침밥이 학생들의 학업성취도 수업 <BR>태도 등에서 얼마나 중요한 영향을 미치는 지에 대해서 알아본다. <BR><BR>삼동초등학교에서도 아침밥을 못 먹는 아이들을 위해 남해군청의 <BR>지원을 받아 아침밥 솔루션이 진행된다. <BR><BR>아이들을 위해서 새벽에 직접 반찬을 배달하는 선생님들. <BR>밤늦게 혼자 집에 있어야 하는 아이들을 위한 별빛 마을 공부방 <BR><BR>엄마품 멘토링 제 디딤돌 공부방 등 선생님과 지역사회가 아이들을 <BR>위해 나서기 시작한다.<BR><BR>이제 180일 간의 프로젝트를 통해서 변화한 아이들을 만나본다.</SPAN>","2010-12-04 23:06:00.0","2011-05-16 15:20:51","EBS","2009/12/23","","삼동초등학교 180일의 기록 3부 내일을 품은 아이들","201105140604056603|0|다큐 프라임-삼동초등학교 180일의 기록_3부.wmv|103287468","교육","예술교육"
"39","html1","다큐프라임-춤 세상을 흔들다 1부","<P>사람들이 춤에 왜 열광하고 춤이 가진 매력이 무엇인지 알아본다.</P>","2010-12-04 23:06:00.0","2011-05-16 15:30:28","EBS","2010/06/28","0","춤 세상을 흔들다-1부 매력 D.N.A 춤","201105140612362765|2|다큐프라임-춤 세상을 흔들다_1부.wmv|334300364","예술","무용"
"41","html1","다큐프라임-춤 세상을 흔들다 3부","<DIV style='WIDTH: 533px; OVERFLOW: hidden' id=detail_content class=contents>아프리카에서 춤은 어떤 의미이고 그들은 왜 춤에 열광하는 지 알아본다 </DIV>","2010-12-04 23:06:00.0","2011-05-16 15:34:56","EBS","2010/06/30","0","시간의 춤 영혼의 노래","201105140616423518|1|다큐프라임-춤 세상을 흔들다_3부.wmv|342012694","예술","무용"
"40","html1","다큐프라임-춤 세상을 흔들다 2부","<DIV style='WIDTH: 533px; OVERFLOW: hidden' id=detail_content class=contents>춤이 우리를 치유할수 있다? 춤을 통해서 새로운 인생을 살게된 사람들을 만나보고 그들에게 춤은 무슨 의미인지 알아본다 </DIV> <P>&nbsp;</P>","2010-12-04 23:06:00.0","2011-05-16 15:32:42","EBS","2010/06/29","0","색다른 비타민","201105140614432961|0|다큐프라임-춤 세상을 흔들다_2부.wmv|357685432","예술","무용"
"34","html1","다큐 프라임-삼동초등학교 180일의 기록 1부","<SPAN style='TEXT-ALIGN: justify; LINE-HEIGHT: 16pt; FONT-FAMILY: '맑은 고딕'; LETTER-SPACING: 0pt; COLOR: #000000; FONT-SIZE: 10pt'>3년 연속 일본 전국학력평가 전국 1위인 아키타현은 43년 전 전국학력평가시험에서 일본 전체 45개 현 중 43등을 기록했던 지역이다. 그 후 교육입현아키타라는 슬로건 걸고 약 반세기에 걸친 학교 학부모 지역사회가 함께하는 교육을 통해 43년 만에 작은 기적을 만들어 낸다. 당연한 것을 당연하게 하고 기초 생활습관에 충실하고 학교와 지역사회가 힘을 모아 아이들을 길러내는 아키타현의 교육.</SPAN><BR> <P style='TEXT-ALIGN: justify; LINE-HEIGHT: 160%; TEXT-INDENT: 0pt; MARGIN: 0pt; FONT-FAMILY: '맑은 고딕'; COLOR: #000000; FONT-SIZE: 10pt'><SPAN style='TEXT-ALIGN: justify; LINE-HEIGHT: 16pt; FONT-FAMILY: '맑은 고딕'; LETTER-SPACING: 0pt; COLOR: #000000; FONT-SIZE: 10pt'>&nbsp;&nbsp;그 중에서도 공부 잘 하는 학교인 하치모리 소학교. 그 곳에서 배운 것은 노트필기 팀티칭 수업 서로서로 배우기 집에서 복습하기 그리고 교육철학이었다. </SPAN></P><BR> <P style='TEXT-ALIGN: justify; LINE-HEIGHT: 160%; TEXT-INDENT: 0pt; MARGIN: 0pt; FONT-FAMILY: '맑은 고딕'; COLOR: #000000; FONT-SIZE: 10pt'><SPAN style='TEXT-ALIGN: justify; LINE-HEIGHT: 16pt; FONT-FAMILY: '맑은 고딕'; LETTER-SPACING: 0pt; COLOR: #000000; FONT-SIZE: 10pt'>&nbsp;&nbsp;위의 방법을 도입해 보기 위해서 우리나라 경상남도 남해에 위치 전교생 76명의 작고 예쁜 남해 삼동초등학교를 찾아간다. 그와 동시에 前 교육부장관인 문용린 서울대 명예 교수와 김청택 서울대 교수 조주연 서울교육대 교수 안진훈 연세대 코칭아카데미 교수로 이루어진 자문단을 구성. 이들과 함께 실험프로젝트를 시작한다.</SPAN></P>","2010-12-04 23:06:00.0","2011-05-16 14:33:27","EBS","2009/12/21","","삼동초등학교 180일의 기록 1부 : 아키타에서 배우다","201105140559554697|0|다큐 프라임-삼동초등학교 180일의 기록_1부.wmv|102712654","교육","예술교육"
"26","html1","창의성을 찾아서 2부 - 생각이 자라는 법","창의성을 찾아서 2부 - 생각이 자라는 법","2009-12-09 00:06:00.0","2010-09-06 11:36:36","EBS","2010/09/06","","창의성을 찾아서 2부 - 생각이 자라는 법","201009061025255926|0|5800032087131.wmv|105106070","교육","통합교육"
"25","html1","창의성을 찾아서 3부-함께 만드는 세상의 변화","창의성을 찾아서 3부-함께 만드는 세상의 변화","2009-12-09 00:06:00.0","2010-09-06 11:32:40","EBS","2010/09/06","","창의성을 찾아서 3부-함께 만드는 세상의 변화","201009061021478380|2|5800032087117.wmv|103736948","교육","통합교육"
"27","html1","창의성을 찾아서 1부 - 노력으로 만들어진 신화","창의성을 찾아서 1부 - 노력으로 만들어진 신화","2009-12-09 00:06:00.0","2010-09-06 11:39:12","EBS","2010/09/06","","창의성을 찾아서 1부 - 노력으로 만들어진 신화","201009061028125118|3|5800032087148.wmv|108707970","교육","통합교육"
"18","html1","아이의 사생활 다큐프라임-다중지능","<FONT style='FONT-SIZE: 12pt'><STRONG><FONT color=#6a5acd>아이의 사생활 다큐프라임-다중지능에 관하여</FONT></STRONG><BR><BR><BR><FONT style='FONT-SIZE: 11pt'>최고의 심장이식 전문의 송명근 교수는 논리수학지능이 발레리나 박세은은 신체운동지능이 뛰어나다. 가수 윤하의 강점지능은 음악지능이고 패션디자이너 이상봉의 강점지능은 공간지능인 것으로 실험결과 나타났다. 아이들에게도 잘하는 것과 못하는 것이 있다.<BR><BR>4부 ‘다중지능’ 편에서 다루는 다중지능이론은 아이큐테스트가 가지고 있는 한계를 극복하고자 고안된 것으로써 인간에게는 언어와 논리수학 외에 신체운동 대인관계 음악 공간 등 8개의 지능이 있다는 것을 골자로 한다. 다중지능이론을 바탕으로 한 교육법의 핵심은 무엇일까&nbsp; <BR><BR>제작진은 인디애나폴리스와 세인트루이스에 있는 다중지능학교인 ‘키러닝 커뮤니티’와 ‘뉴시티 스쿨’을 찾아가 취재했다. 그들은 하나의 주제를 정하고 다양한 과목에 적용시켜 학습의 영역을 확장시키는 ‘프로젝트 수업’과 아이들이 강점을 나타내는 능력을 체크할 수 있는 ‘플로우 수업’을 진행한다. <BR><BR>결국 다중지능학습법의 결론은 아이의 인생에서 가장 중요한 강점지능을 찾아주고 그것을 활용해 아이가 다양한 지능을 발달시킬 수 있도록 도와주자는 것이다.</FONT></FONT><FONT style='FONT-SIZE: 11pt'> </FONT>","2009-12-07 23:01:00.0","2010-08-11 13:39:23","EBS","2010/08/11","","아이의 사생활 다큐프라임-다중지능에 관하여","201008011945359016|2|5800032086875.wmv|110071016","교육","일반교육"
"22","html1","<세계의 예술교육 그 현장을 가다>-핀란드편","<FONT color=#4478aa>&lt;세계의 예술교육 그 현장을 가다&gt;-핀란드편 </FONT>","2009-12-07 23:01:00.0","2010-08-11 14:51:59","EBS","2010/08/11","","<세계의 예술교육 그 현장을 가다>-핀란드편","201008012046558625|1|5800032086899.wmv|106387096","교육","예술교육"
"21","html1","<세계의 예술교육 그 현장을 가다>-영국편","<!--StartFragment--><STRONG><FONT style='FONT-SIZE: 12pt' color=#6a5acd>전통과 현대의 자유로운 변주 -영국-</FONT></STRONG>  <P class=HStyle0><BR></P> <P class=HStyle0><FONT style='FONT-SIZE: 11pt'>셰익스피어의 나라 영국. 영국에서는 16세기경부터 자신을 표현하는 방법으로 연극 드라마를 사용했다고 한다. 또한 자신의 의견을 당당하게 나타내고 주장할 수 있는 방법의 일환으로도 무대위의 연극을 많이 이용했고 그 후 영국의 드라마교육은 교육의 탄탄한 줄기역할을 하고 있다. 그런 드라마교육을 중점으로 전통과 현대를 아우르는 영국의 예술교육의 형태를 알아보고 지금의 모습을 갖추기까지 교육현장을 뒷받침해준 정책들은 어떤 것들이 있는지 알아본다.</FONT></P> <P class=HStyle0><FONT style='FONT-SIZE: 11pt'><BR></FONT></P> <P class=HStyle0><FONT style='FONT-SIZE: 11pt'><STRONG>(1) 전통과 현대의 조화 </STRONG></FONT></P> <P class=HStyle0><FONT style='FONT-SIZE: 11pt'>런던에는 곳곳에서 셰익스피어의 전통을 이어받은 정극이 공연되고 있으며 로얄 알버트홀이나 오페라극장에는 세계적인 클래식 연주자들의 공연이 이루어지고 있는 한편 한 쪽에서는 &lt;록키 호러 픽쳐 쇼&gt;와 같은 전위적인 작품들도 무대에 올려지고 있다. 바로 이것이 다양한 문화향유계층이 존재하고 있다는 증거. 이렇게 전통과 현재가 조화롭게 공존할 수 있도록 다양한 향유계층을 키워내는 영국 예술교육의 힘을 살펴본다.</FONT></P> <P class=HStyle0><FONT style='FONT-SIZE: 11pt'><BR></FONT></P> <P class=HStyle0><FONT style='FONT-SIZE: 11pt'><STRONG>(2) 그들만의 독특한 음악교육</STRONG></FONT></P> <P class=HStyle0><FONT style='FONT-SIZE: 11pt'>영국에는 왕립음악학교에서 이루어지는 공식적인 급수취득제도가 있다. 이것은 영국 왕립음악원 연합이사회(ABRSM) 소속 시험감독관에 의해 치러지는데 그 수준에 따라 1등급에서 8등급까지 나누어진다. 이것은 특별히 음악을 전공하려는 사람이 아니더라도 모든 음악을 좋아하는 사람들이라면 모두들 도전할 수 있는 제도. 그리고 특이한 것은 영국 전통의 왕립음악학교에서 주관함에도 피아노와 바이올린 그리고 첼로나 비올라와 같은 클래식 악기에서부터 클럽에서의 락 공연에 사용될 법한 일렉트릭 악기들까지.. 전통과 현대의 거의 모든 악기에서 이루어지고 있다는 것이다. 이 급수를 취득하면 언제 어디서든 이것이 공신력있는 기준이 되어 음악에 관한한 별 다른 오디션 없이 하고자하는 다양한 활동을 할 수 있다고 한다. 이렇게 영국 음악교육의 가장 큰 특징은 음악을 배우고자 하는 아이들이 음악을 최대한 느끼고 즐기게끔 도와주는 것.</FONT></P> <P class=HStyle0><FONT style='FONT-SIZE: 11pt'>이런 제도는 전공자 뿐 아니라 음악을 삶의 일부분으로 즐기려는 사람들을 키워내는 결과를 낳았고 공교육기관에서도 스스로 즐기며 연주할 수 있는 (오케스트라라던지 개인 연주회라든지....) 다양한 학습기회를 제공하게된다. 이렇게 음악교육 시스템이 잘 되어있는 영국 워윅셔주의 Kenilworth 중학교의 사례를 통해 그들만의 특별한 음악교육방법을 알아본다.</FONT></P> <P class=HStyle0><FONT style='FONT-SIZE: 11pt'><BR></FONT></P> <P class=HStyle0><FONT style='FONT-SIZE: 11pt'><STRONG>(3) 연령별에 따른 차별교육 <BR>&nbsp;&nbsp;&nbsp;&nbsp; (저학년은 기초부터 튼튼히 고학년은 창의력을 키워주는 교육)</STRONG></FONT></P> <P class=HStyle0><FONT style='FONT-SIZE: 11pt'>아름다운 경치로 사시사철 관광객이 들끓는 영국의 대표적인 휴양도시 브라이튼. 하지만 이곳이 유명한 또 다른 이유는 도시 전체가 예술적인 도시라는 것이다. 그러기에 드라마교육이 학교 안에서만 이루어지는 것이 아니라 마을 전체가 온통 드라마교육과 예술교육에 힘쓰고 있는데 일면 “예술적인 교육지”라는 컨셉이 있을 정도로 일반 학생들에게 드라마와 음악 등의 예술적 체험을 장려하고 교육자나 마을 공동체코스의 운영 등이 전체적으로 골고루 발달되어 있다. 이 브라이튼에서 드라마교육의 명문으로 잘 알려져 있는 Varndean School에서 이루어지는 연령별에 따른 맞춤 교육의 형태를 살펴본다.</FONT></P> <P class=HStyle0><FONT style='FONT-SIZE: 11pt'><BR></FONT></P> <P class=HStyle0><FONT style='FONT-SIZE: 11pt'><STRONG>(4) 예술 향유자층 확대를 위한 교육</STRONG></FONT></P> <P class=HStyle0><FONT style='FONT-SIZE: 11pt'>영국의 웨스트엔드에는 매년 수많은 관광객이 몰려들고 있고 심지어 미국 헐리우드의 유명연예인들 조차도 영화를 찍지 않는 기간에는 웨스트엔드 극장에서 뮤지컬 공연을 하는 것이 자신의 실력을 검증받는 일인 듯 많은 공연에 출연중이라고 한다. 세계 유명 박물관과 미술관을 소유하고 있는 영국 런던에서 볼 수 있는 공연과 셰익스피어의 생가로 유명한 스트래드퍼드의 &lt;로열 셰익스피어 극단&gt;의 배우와 연출자와의 인터뷰를 통해 어린아이들이 전통을 자신만의 것으로 체화시킬 수 있도록 하는 교육방법을 알아본다.</FONT></P>","2009-12-07 23:01:00.0","2010-08-11 14:37:15","EBS","2010/08/11","","<세계의 예술교육 그 현장을 가다>-영국편","201008012034421789|4|5800032086912.wmv|103645964","교육","예술교육"
"20","html1","<세계의 예술교육 그 현장을 가다>-호주편","<!--StartFragment--><STRONG><FONT style='FONT-SIZE: 12pt' color=#6a5acd>공존의 문화 공존의 예술 -호주-</FONT></STRONG>  <P class=HStyle0><BR></P> <P class=HStyle0><FONT style='FONT-SIZE: 11pt'>이민의 나라 호주. 호주에서는 200 여개가 넘는 언어가 사용되고 있고 국민의 23%가 해외에서 출생했다. 한 교실 안에 이라크인 미국인 팔레스타인인 이스라엘인이 함께 공부하는 호주에서 최우선 과제는 모두가 조화를 이루는 사회를 만드는 것이다. 이를 위해 호주에서는 세계 모든 나라의 문화를 존중하는 다문화주의를 표방하고 소수 민족들이 자신의 문화를 알리고 표현하는 활동을 지원하고 있다. 이러한 다문화주의는 호주 사회의 새로운 정체성을 형성해가고 있고 호주의 예술은 이러한 흐름을 반영하고 있다. 학교에서는 여러 나라의 문화를 가르치기 위해 공연단을 초대한다. </FONT></P> <P class=HStyle0><FONT style='FONT-SIZE: 11pt'>한 민족의 문화를 이해하는데 있어 교사에게 수업을 받는 것 보다 공연단의 공연을 보는 것이 훨씬 효과적이기 때문이다. 인도네시안 트리오 일본 타악기 타이코를 연주하는 타이코즈 아랍 음악을 연주하는 아사두타 정통 음악인들로 구성된 아카펠라 그룹 허밍버드 등 학교 내 문화 예술 공연들을 통해 호주가 공존의 문화를 정착시키기 위해 어떻게 노력하는지 엿본다. 학교 밖에서는 학교 부적응 학생들을 위해 지역 센터 프로그램들이 있다. <BR><BR>이 프로그램들은 당장 활용할 수 있고 학생들이 좋아하는 대중 예술 위주이다. 영화를 제작 장비를 완벽히 갖춘 영상 스튜디오 차량 디제이 워크샵 지역 라디오 방송국 등은 학교와는 또 다른 교육의 장이었다. 교복과 잔소리 하는 교사가 싫다는 학생들도 영상 예술가와 열심히 영화를 제작하는 것을 보면 예술은 개인의 잠재력을 일깨워 건전한 시민으로 성장하도록 한다는 것을 알 수 있다. </FONT></P>","2009-12-07 23:01:00.0","2010-08-11 14:35:07","EBS","2010/08/11","","<세계의 예술교육 그 현장을 가다>-호주편","201008012032479680|1|5800032086882.wmv|101822188","교육","예술교육"
"23","html1","<세계의 예술교육 그 현장을 가다>-프랑스편","<!--StartFragment--><STRONG><FONT style='FONT-SIZE: 12pt' color=#6a5acd>문화와 예술 앞에 누구나 평등하다 - 프랑스 편 </FONT></STRONG> <P class=HStyle0><BR></P> <P class=HStyle0><FONT style='FONT-SIZE: 11pt'>프랑스에서 학교는 사회 통합의 장이다. <BR>문화 예술 교육은 소외 계층 자녀들에게 우선적으로 예술 참여의 기회를 준다. 바스티유 오페라 하우스에서는 학생들이 오페라 하우스에서 예술가들과 10달 동안 준비한 후 직접 오페라 무대에 서는 프로그램을 운영하고 있다. <BR><BR>오페라를 들어본 적도 없는 소외 계층 학생들이 10달 동안 오페라를 연습하면서 고전 예술 세계에 눈을 뜬다. 하시드라는 한 생명공학 연구원은 중학교 3학년 때 바스티유 오페라 하우스의 무대에 섰었다. 가난한 이민자 가정에서 자란 하시드는 오페라 하우스 무대에 선 것이 자신의 인생을 바꾼 일생일대의 경험이었다고 말한다. <BR><BR>프랑스 학생들은 박물관 미술관을 찾아 전문 예술인들로부터 깊이 있는 수업을 듣고 유치원 때부터 예술가들과 함께 작업하면서 이윤을 추구하는 문화 상품으로부터 진정한 예술적 가치를 지닌 예술품을 구별하는 미적 안목과 비판적 능력을 기르고 있었다. 모네 고등학교 합창반 학생들은 시청의 요청으로 양로원 공연을 하면서 누군가와 음악을 나누는 것이 행복하다고 말한다. <BR><BR>문화와 예술의 세계에 눈 떠가는 프랑스의 젊은이들을 통해 문화 예술 교육의 의미와 가능성을 알 수 있다.</FONT></P>","2009-12-07 23:01:00.0","2010-08-11 14:54:11","EBS","2010/08/11","","<세계의 예술교육 그 현장을 가다>-프랑스편","201008012048457128|3|5800032086905.wmv|101878244","교육","예술교육"
"19","html1","교육이 미래다!-행복을 키우는 창의력 교육","교육이 미래다!-행복을 키우는 창의력 교육","2009-12-07 23:01:00.0","2010-08-11 13:42:32","EBS","2010/08/11","","교육이 미래다!-행복을 키우는 창의력 교육","201008011949559995|1|5800032087100.wmv|102155516","교육","통합교육"
"24","html1","<세계의 예술교육 그 현장을 가다>-미국편","<!--StartFragment--><STRONG><FONT style='FONT-SIZE: 12pt' color=#6a5acd>예술교육 미래관객 양성이 관건이다- 미국</FONT></STRONG>  <P class=HStyle0><BR></P> <P class=HStyle0><FONT style='FONT-SIZE: 11pt'><STRONG>1. 부자들의 상징으로 전락해가는 예술교육 </STRONG></FONT></P> <P class=HStyle0><FONT style='FONT-SIZE: 11pt'>영화의 헐리우드 연극등 공연의 브로드웨이.. 세계 유수의 뮤지컬이 제일 먼저 막을 올리는 뉴욕..미국은 명실공이 세계 최고의 문화 생산국이자 소비국이다. 하지만 지금 미국은 새로운 문제에 봉착해있다. 거대한 문화산업 뒤에는 갈수록 적자를 면치 못하는 소규모극장들과 부자들의 전유물이 되어버린 문화공연장 그리고 갈수록 문화 예술 공연에 관심을 잃어가는 청소년들이 문화 패권국 미국의 새로운 문제로 떠오른 것이다. </FONT></P> <P class=HStyle0><FONT style='FONT-SIZE: 11pt'><BR></FONT></P> <P class=HStyle0><FONT style='FONT-SIZE: 11pt'><STRONG>2. 관건은 미래의 관객을 양성하는 것 ! </STRONG></FONT></P> <P class=HStyle0><FONT style='FONT-SIZE: 11pt'>이 문제를 해결하기 위해 미국은 많은 지원을 해왔다. 각종 문화단체를 지원하고 공연을 제작지원했으며 문화 예술 산업에 많은 예산을 할당해왔다. 하지만 문제는 크게 달라지지 않았다. 근본적인 해법을 찾던 그들이 발견한 것은 바로 미래의 관객이 될 청소년과 어린이들에게 예술교육을 시행하는 것 그들이야 말로 미래의 미국 문화산업을 되살릴 주인공들이기 때문이다.</FONT></P> <P class=HStyle0><FONT style='FONT-SIZE: 11pt'><BR></FONT></P> <P class=HStyle0><FONT style='FONT-SIZE: 11pt'><STRONG>3. 줄리어드의 수준 높은 예술교육을 빈민촌의 공립학교로 </STRONG></FONT></P> <P class=HStyle0><FONT style='FONT-SIZE: 11pt'>세계적으로 유명한 줄리어드 예술대학교에서 피아노를 전공하고 피아노과를 수석으로 졸업한 한국 학생 홍지혜씨.. 그녀는 피아노과를 수석졸업했지만 전도유망한 전문 연주가의 길을 포기하고 빈민촌과 시골의 공립학교에서 음악을 가르치는 일을 하고 있다. 한국에서 중.고등학교를 나온 그녀는 미국 줄리어드에 다니면서 청소년기의 예술교육의 중요성에 대해 절감한것.. 그녀가 배운 줄리어드의 수준높은 예술교육이 그대로 공교육으로 전해지고 있는것.. 비단 줄리어드 뿐 아니라 메트로폴리탄 오페라단 뉴욕 심퍼니 오케스트라 유명한 대중가수와 뮤지컬 배우등도 공교육에 투입되고 있는 것이 미국의 상황.</FONT></P> <P class=HStyle0><FONT style='FONT-SIZE: 11pt'>바로 예술문화교육에 대한 지원 시스템 덕분에 가능한 일이다. </FONT></P> <P class=HStyle0><FONT style='FONT-SIZE: 11pt'><BR></FONT></P> <P class=HStyle0><FONT style='FONT-SIZE: 11pt'><STRONG>4. 문제는 시스템이다.! 지자체와 문화단체간의 예술교육 지원 시스템 </STRONG></FONT></P> <P class=HStyle0><FONT style='FONT-SIZE: 11pt'>이러한 예술교육 지원이 가능하게 한 것이 바로 미국의 문화예술교육 지원 시스템. 전미교육협회( NEA) 나 예술교육 협회 등에서는 예술단체를 지원하는 조건으로 바로 공립학교에 이런 예술교육 지원을 의무화한 것..이렇게 10여년전 시작된 이 파트너 쉽의 결과 미국 사회에서의 예술교육은 지금 현저하게 달라지고 있다는데...정부와 예술단체 그리고 학교가 어우러진 미국의 예술교육 지원 시스템과 미래관객을 양성하는 파트너쉽을 들여다본다. </FONT></P>","2009-12-07 23:01:00.0","2010-08-11 14:56:00","EBS","2010/08/11","","<세계의 예술교육 그 현장을 가다>-미국편","201008012050219455|2|5800032086950.wmv|98713942","교육","예술교육"
"17","html1","2010년도 지역문화예술교육 활성화 지원사업 현장","<IMG height=1440 alt='' src='http://www.e-sac.or.kr/data/cheditor4/1007/SfWEghLEJkypUj5Jtcjr5NyD_copy1.jpg' width=1920 align=top border=0><BR><BR><IMG height=1536 alt='' src='http://www.e-sac.or.kr/data/cheditor4/1007/yNdN9ZeDixndT5I3C7bZh1.jpg' width=2048 align=top border=0><BR><BR><IMG height=1536 alt='' src='http://www.e-sac.or.kr/data/cheditor4/1007/RWg3qRzvYi51v8RSf.jpg' width=2048 align=top border=0><BR><BR><IMG height=1536 alt='' src='http://www.e-sac.or.kr/data/cheditor4/1007/4HJv2XqaDZSRS7.jpg' width=2048 align=top border=0><BR><BR><FONT color=#4478aa>* 더 자세한 사업안내는 부산문화재단 홈페이지를 통해 확인하실 수 있습니다.<BR>&nbsp;<BR>&nbsp; 부산문화재단&nbsp;: </FONT><A href='http://www.bscf.or.kr/' target=_blank>http://www.bscf.or.kr/</A>","2009-12-06 23:05:00.0","2010-07-15 17:18:00","부산문화재단","2010/07/15","","2010년도 지역문화예술교육 활성화 지원사업 현장","201007101052037470|0|예인샘꺼.wmv|34717858","교육","예술교육"
"16","html1","방과 후 문화예술교실 아인스(AINS) 공개수업 동영상","<IMG height=1568 alt='' src='http://www.e-sac.or.kr/data/cheditor4/1007/3BtNKbmtlkck.jpg' width=2352 align=top border=0><BR><BR><IMG height=1568 alt='' src='http://www.e-sac.or.kr/data/cheditor4/1007/QPHHO5ZWao.jpg' width=2352 align=top border=0><BR><BR><IMG height=1568 alt='' src='http://www.e-sac.or.kr/data/cheditor4/1007/b1bDd9XOy164M.jpg' width=2352 align=top border=0><BR><BR><IMG height=1568 alt='' src='http://www.e-sac.or.kr/data/cheditor4/1007/sZKFc7YT.jpg' width=2352 align=top border=0><BR><BR><IMG height=1568 alt='' src='http://www.e-sac.or.kr/data/cheditor4/1007/k4tChtGhXeMHC7qcMAoknJEO7QcF.jpg' width=2352 align=top border=0><BR><BR><IMG height=1568 alt='' src='http://www.e-sac.or.kr/data/cheditor4/1007/7o2Qb3x1CiKkfSiqnHuZjZHd5Gs.jpg' width=2352 align=top border=0><BR><BR><IMG height=1568 alt='' src='http://www.e-sac.or.kr/data/cheditor4/1007/cU7Cll2qQWsTmUTFfEBNedjcWoqje.jpg' width=2352 align=top border=0><BR><IMG height=2971 alt='' src='http://www.e-sac.or.kr/data/cheditor4/1007/bBsuNjIy7eDQMCCMgty.jpg' width=1944 align=top border=0><BR><BR><IMG height=2971 alt='' src='http://www.e-sac.or.kr/data/cheditor4/1007/6aET9R1tKdwPwF7Vx9.jpg' width=1944 align=top border=0><BR><BR><IMG height=3023 alt='' src='http://www.e-sac.or.kr/data/cheditor4/1007/UlCcgLgmKCnZ7yOK9QfeM4pwKlDU.jpg' width=1944 align=top border=0><BR><BR><IMG height=2971 alt='' src='http://www.e-sac.or.kr/data/cheditor4/1007/B2eUrJjUn2RXHD4VSLstdBRMHtamlHuv.jpg' width=1944 align=top border=0><BR><BR>* 더 자세한 사업안내는 부산문화재단 홈페이지를 통해 확인하실 수 있습니다.<BR>&nbsp;<BR>&nbsp; 부산문화재단&nbsp;: <A href='http://www.bscf.or.kr/' target=_blank>http://www.bscf.or.kr/</A><BR>","2009-12-06 23:05:00.0","2010-07-15 17:00:53","부산문화재단","2010/07/15","","방과 후 문화예술교실 아인스(AINS) 공개수업 동영상","201007101032347574|3|6-25 교리초등.wmv|147666462","교육","예술교육"
"15","html1","2009 동계 특수분야 직무연수 '아카펠라를 활용한 즐거운 음악수업안 만들기'","<STRONG><FONT color=#4682b4 size=5>2009 동계 특수분야 직무연수 <BR><BR>'아카펠라를 활용한 즐거운 음악수업안 만들기'<BR><BR><IMG height=285 alt='' src='http://www.e-sac.or.kr/data/cheditor4/1006/MRIxV8Kw5vIl9clx1Qn.jpg' width=550 align=top border=0><BR><BR><IMG height=366 alt='' src='http://www.e-sac.or.kr/data/cheditor4/1006/wKFkzWQZE.jpg' width=550 align=top border=0><BR><BR></FONT></STRONG>주 제 : 아카펠라 이론 교육사례 실습 공연 함께 나누기 <BR>일 시 : 2010년 1월 4 ~ 8일(총 5일 30시간) <BR>장 소 : 청소년문화의집 다목적홀 <BR>대 상 : 광주 초중등 교사 및 문화예술교육 활동가 40명 <BR><BR><BR><STRONG><FONT style='BACKGROUND-COLOR: #ffffe0' color=#8b4513><A href='http://www.gjarte.or.kr/bbs/board.php?bo_table=cnews&amp;wr_id=63&amp;page=2' target=_blank>뚬바뚬바 그 겨울의 아카펠라를 느끼고 싶다면 슝-</A></FONT></STRONG>  [이 게시물은 관리자님에 의해 2010-07-15 14:43:24 광역문화예술교육지원센터에서 복사 됨]","2009-12-05 22:08:00.0","2010-06-28 17:15:09","광주문화예술교육지원센터","2010/01/04","","2009 동계 특수분야 직무연수","201006260646309369|0|100105_아카펠라직무연수_스케치영상_조성우.wmv|427475402","교육","예술교육"
"14","html1","2009 미술교사 역량강화 디자인워크숍 '일상 더하기 이상' 스케치","<STRONG><FONT color=#483d8b size=5>2009 미술교사 역량강화 디자인워크숍 <BR><BR>'일상 더하기 이상' 스케치<BR><BR><BR><IMG height=195 alt='' src='http://www.e-sac.or.kr/data/cheditor4/1006/suiGhtC8b8CCxyt7Mr1QWVn76Zv.jpg' width=550 align=top border=0><BR><BR><IMG height=367 alt='' src='http://www.e-sac.or.kr/data/cheditor4/1006/mgcmTjG3nm4Xfu.jpg' width=550 align=top border=0><BR><BR><BR></FONT></STRONG>주 제 : '유니버설 디자인'을 소재로 한 디자인 수업안 만들기 <BR>일 시 : 2009년 8월 18 ~ 20일(화수목) (총 20시간) <BR>장 소 : (재)광주비엔날레 세미나실 <BR>대 상 : 광주 초중등 미술교사 30명 <BR><BR><BR><BR><STRONG><FONT color=#696969><FONT style='BACKGROUND-COLOR: #fffff0'>1) </FONT><A href='http://www.gjarte.or.kr/bbs/board.php?bo_table=cnews&amp;wr_id=6&amp;page=3' target=_blank><FONT style='BACKGROUND-COLOR: #fffff0'>그 날의 이야기 보러 날아가기 슝-</FONT></A><BR><BR><FONT style='BACKGROUND-COLOR: #fffff0'>2)&nbsp;</FONT><A href='http://www.gjarte.or.kr/bbs/board.php?bo_table=cnews&amp;wr_id=30&amp;page=3' target=_blank><FONT style='BACKGROUND-COLOR: #fffff0'>워크숍에서 기획한 디자인 수업을 학교에서 아이들과 함께 했습니다! 궁금하시죠?</FONT></A><FONT style='BACKGROUND-COLOR: #fffff0'>&nbsp;슝-<BR></FONT><BR><IMG height=413 alt='' src='http://www.e-sac.or.kr/data/cheditor4/1006/JOZf3z1XOLQFwMOvRuGPWggf.jpg' width=550 align=top border=0></FONT></STRONG>  [이 게시물은 관리자님에 의해 2010-07-15 14:43:24 광역문화예술교육지원센터에서 복사 됨]","2009-12-05 22:08:00.0","2010-06-28 17:07:38","광주문화예술교육지원센터","2009/08/18","","2009 미술교사 역량강화 디자인워크숍","201006260644092272|1|090818_디자인워크숍_스케치영상_최명훈.WMV|146223249","교육","통합교육"
"9","html1","호기심예술학교제1탄-마법예술학교","<SPAN style='FONT-FAMILY: '08서울남산체 L''><FONT style='FONT-SIZE: 10pt' face=dotum color=#993399><STRONG><FONT color=#6a5acd>★호기심예술학교제1탄★<BR>-마법예술학교-</FONT><BR><BR></STRONG><FONT color=#ff8c00><STRONG>● 개요 :&nbsp;<BR></STRONG></FONT><FONT style='BACKGROUND-COLOR: #f4f4f4' color=#000000>&nbsp;&nbsp;&nbsp; 일시-2007.11.30~12.15<BR>&nbsp;&nbsp;&nbsp; 장소-효제초등학교 광희초등학교<BR>&nbsp;&nbsp;&nbsp; 주최/주관-서울문화재단<BR><BR></FONT><FONT color=#ff8c00><STRONG>●&nbsp;내용 :&nbsp;<BR></STRONG></FONT><FONT style='BACKGROUND-COLOR: #f4f4f4' color=#000000>&nbsp;&nbsp;&nbsp;&nbsp;'생각하는 마법 예술학교'는<BR>&nbsp;&nbsp;&nbsp;&nbsp;'어린이 창의&nbsp;Arts-TREE'에서 활동하는<BR>&nbsp;&nbsp;&nbsp;&nbsp; 예술교육가(TA)와&nbsp;전문지도교수(MTA)의 <BR>&nbsp;&nbsp;&nbsp;&nbsp; 공동연구 프로젝트에서 탄생한 공연형식<BR>&nbsp;&nbsp;&nbsp;&nbsp; 의 통합예술교육 프로그램으로&nbsp;종이/<BR>&nbsp;&nbsp;&nbsp;&nbsp; 점토/플라스틱을 활용하는 3개의 '마법의<BR>&nbsp;&nbsp;&nbsp;&nbsp; 방'에서 작품을 만들고 이를 연결해 재미<BR>&nbsp;&nbsp;&nbsp;&nbsp; 있는 스토리를 완성하는 구성으로 <BR>&nbsp;&nbsp;&nbsp;&nbsp; 미술과 교육연극을 유기적으로 연결해 <BR>&nbsp;&nbsp;&nbsp;&nbsp; 아이들의 참여와 상상력을 이끌어낸다.<BR><BR></FONT><STRONG><FONT color=#ff8c00>●&nbsp;구성 :&nbsp;</FONT><BR></STRONG><FONT style='BACKGROUND-COLOR: #f4f4f4' color=#000000>&nbsp;&nbsp;&nbsp; 1.&nbsp;마법학교 입학식<BR>&nbsp;&nbsp;&nbsp; 2.&nbsp;팔랑팔랑~거인의 교실 속으로!<BR>&nbsp;&nbsp;&nbsp; 3.&nbsp;조물조물 점토로 빚어내는 과자집<BR>&nbsp;&nbsp;&nbsp; 4.&nbsp;뚝딱뚝딱~틴틴 할아버지의 꿈을&nbsp;<BR>&nbsp;&nbsp;&nbsp;&nbsp;&nbsp;&nbsp;&nbsp;찾아라!<BR>&nbsp;&nbsp;&nbsp; 5.&nbsp;박경림(저명예술가 방송인) 진행<BR></FONT></FONT></SPAN>","2009-12-03 00:05:00.0","2010-03-05 09:25:49","서울문화재단","2007/11/30","","종이/점토/플라스틱을 활용하는 3개의 '마법의 방'에서 작품을 만들고 이를 연결해 스토리를 완성. 아이들의 참여와 상상력을 이끔","201003170955534506|1|마법예술학교.wmv|278265624","교육","예술교육"
"8","html1","호기심예술학교2탄-토우마을 상상여행","<FONT style='FONT-SIZE: 12pt' color=#6a5acd><STRONG>★호기심예술학교제2탄★<BR></STRONG></FONT><STRONG><FONT color=#6a5acd>&nbsp;&nbsp;&nbsp;-토우마을 상상여행-</FONT></STRONG><BR><BR><FONT color=#ff8c00><STRONG>● 개요 :&nbsp;</STRONG><BR></FONT>&nbsp;&nbsp;&nbsp; 일시-2008.12.18~12.20<BR>&nbsp;&nbsp;&nbsp; 장소-효제초등학교<BR>&nbsp;&nbsp;&nbsp; 주최/주관-서울문화재단<BR><BR><STRONG><FONT color=#ff8c00>●&nbsp;내용 :&nbsp;<BR></FONT></STRONG>&nbsp;&nbsp;&nbsp; '토우마을 상상여행'은<BR>&nbsp;&nbsp;&nbsp; '어린이 창의 Art-TREE'에서 활동하는 전문<BR>&nbsp;&nbsp;&nbsp;&nbsp; 예술교육가(TA)와&nbsp;전문지도교수(MTA)의 <BR>&nbsp;&nbsp;&nbsp;&nbsp; 공동연구 프로젝트에서 탄생한 공연형식의<BR>&nbsp;&nbsp;&nbsp;&nbsp; 통합예술교육 프로그램으로 어린이들이 <BR>&nbsp;&nbsp;&nbsp;&nbsp; 오염덩이공간에 갇힌 토우마을의 보물지킴<BR>&nbsp;&nbsp;&nbsp;&nbsp; 이 '토우'를 구해내는 내용이다. 연극 무용 <BR>&nbsp;&nbsp;&nbsp;&nbsp; 애니메이션 장르를 통합한 체험형 문화예술<BR>&nbsp;&nbsp;&nbsp;&nbsp; 교육공연으로 어린이들이 전문예술교육가와<BR>&nbsp;&nbsp;&nbsp;&nbsp; 함께 직접 참여해 상상력과 창의력을 키울 <BR>&nbsp;&nbsp;&nbsp;&nbsp; 수 있다.<BR><BR><STRONG><FONT color=#ff8c00>●&nbsp;구성 :&nbsp;</FONT></STRONG><BR>&nbsp;&nbsp;&nbsp; 1. 토우마을로 초대<BR>&nbsp;&nbsp;&nbsp; 2. 박물관(현실세계)<BR>&nbsp;&nbsp;&nbsp; 3. 토우마을의 현재<BR>&nbsp;&nbsp;&nbsp; 4. 토우마을의 과거<BR>&nbsp;&nbsp;&nbsp; 5. 평화롭던 토우마을의 과거<BR>&nbsp;&nbsp;&nbsp; 6. 토우마을의 현재<BR>&nbsp;&nbsp;&nbsp; 7. 오염덩이의 공간<BR>&nbsp;&nbsp;&nbsp; 8. 다시 돌아온 토우마을<BR>&nbsp;&nbsp;&nbsp; 9. 다시 돌아온 토우마을","2009-12-03 00:04:00.0","2010-03-04 13:07:45","서울문화재단","2008/12/18","","연극무용애니메이션 장르를 통합한 체험형 문화예술교육공연으로 어린이들과 전문예술교육가가 함께 참여하여 진행","201003171209559180|2|토우마을상상여행.wmv|470326020","교육","예술교육"
"10","html1","저명예술가 희망의 예술교사되다!","<STRONG><FONT color=#6a5acd>★저명예술가<BR>&nbsp;&nbsp;희망의 예술교사되다!★<BR></FONT></STRONG><BR><FONT color=#ff8c00><STRONG>● 개요 :&nbsp;</STRONG><BR></FONT>&nbsp;&nbsp;&nbsp; 일시-2007.12.21~12.26<BR>&nbsp;&nbsp;&nbsp; 장소-우신고등학교 영등포여고<BR>&nbsp;&nbsp;&nbsp; 주최/주관-서울문화재단<BR><BR><STRONG><FONT color=#ff8c00>●&nbsp;내용 :&nbsp;<BR></FONT></STRONG>&nbsp;&nbsp;&nbsp;&nbsp; 국내외 저명 문화예술인이 예술교육 지도자<BR>&nbsp;&nbsp;&nbsp;&nbsp; (arts-educator-에듀케이터)가 되어&nbsp;<BR>&nbsp;&nbsp;&nbsp;&nbsp; 예술교사로서 학교 교육현장을 직접 찾아가<BR>&nbsp;&nbsp;&nbsp;&nbsp; 관련 문화예술교육을 진행 우신고등학교<BR>&nbsp;&nbsp;&nbsp;&nbsp; 음악동아리 '우신윈드오케스트라'에 피아니<BR>&nbsp;&nbsp;&nbsp;&nbsp; 스트 겸 지휘자 김대진 교수와 영등포여고<BR>&nbsp;&nbsp;&nbsp;&nbsp; 연극동아리 '온새미로'에 연출가 임도완&nbsp;교<BR>&nbsp;&nbsp;&nbsp;&nbsp; 수가 학교를 직접 방문 최고의 예술기량을<BR>&nbsp;&nbsp;&nbsp;&nbsp; 가르치고 예술가의 철학과 삶의 이야기를<BR>&nbsp;&nbsp;&nbsp;&nbsp; 나눔으로써 청소년들의 꿈과 비전을 제시.<BR><BR><STRONG><FONT color=#ff8c00>●&nbsp;구성 :&nbsp;</FONT></STRONG><BR>&nbsp;&nbsp;&nbsp; 1. 우신고등학교 윈드오케스트라 편<BR>&nbsp;&nbsp;&nbsp;&nbsp;&nbsp;&nbsp;&nbsp; (김대진-피아니스트 지휘자)&nbsp;<BR>&nbsp;&nbsp;&nbsp; 2.&nbsp;영등포여고 연극반 온새미로 편<BR>&nbsp;&nbsp;&nbsp;&nbsp;&nbsp;&nbsp;&nbsp;&nbsp;(임도완-연극연출가)","2009-12-02 23:07:00.0","2010-03-17 14:25:32","서울문화재단","2007/12/21","","지휘자 김대진교수와 연출가 임도완 교수가 학교를 방문 문화예술교육을     진행. 청소년들의 꿈과 비전을 제시","201003171312372910|0|저명예술가.wmv|254697198","교육","예술교육"
"13","html1","경남문화예술교육지원센터 문화예술교육 박람회 홍보동영상","경남문화예술교육지원센터 문화예술교육 박람회 홍보동영상  [이 게시물은 관리자님에 의해 2010-07-15 14:43:24 광역문화예술교육지원센터에서 복사 됨]","2009-12-02 23:05:00.0","2010-03-15 22:00:41","경남","2010/03/15","","","201003152055172935|0|경남문화예술교육지원센터 홍보동영상.wmv|27696128","문화","철학"
"31","html1","'EBS 문화예술교육 시리즈 1부 예술 나에게 오다'","<STRONG>'EBS 문화예술교육 시리즈 1부 예술 나에게 오다' </STRONG><BR><BR>일상 속에서 펼쳐지는 예술의 재발견을 통해 예술 교육의 필요성을 하나하나 짚어본다.","2009-11-01 00:05:00.0","2010-11-05 14:22:24","EBS","2010/11/05","","'EBS 문화예술교육 시리즈 1부 예술 나에게 오다'","201011051306275296|4|5800032087018.wmv|92609194","교육","일반교육"
"29","html1","EBS 문화예술교육 시리즈 3부-'어떤 예술가들'","<STRONG>EBS 문화예술교육 시리즈 3부-'어떤 예술가들'</STRONG><BR><BR>예술교육 일선에서 기꺼이 피교육자들을 만나고 있는 예술가들을 통해 우리 예술교육에서 매개자의 중요성은 무엇인지 생각해본다.","2009-11-01 00:05:00.0","2010-11-05 11:40:05","EBS","2010/11/05","","EBS 문화예술교육 시리즈 3부-'어떤 예술가들'","201011051024041374|4|5800032086981.wmv|93672170","예술","기타"
"28","html1","EBS 다큐 프라임 - 초등생활 보고서 (차별)'","EBS 다큐 프라임 - 초등생활 보고서 (차별)' <BR><IMG height=688 alt='' src='http://www.e-sac.or.kr/data/cheditor4/1011/qowWRSoTTJGSyCG92hRmegB.jpg' width=493 align=top border=0><BR>","2009-11-01 00:05:00.0","2010-11-05 10:18:07","EBS","2010/11/05","","EBS 다큐 프라임 - 초등생활 보고서 (차별)","201011050900105759|2|5800032086851.wmv|100204054","교육","학교교육"
"30","html1","EBS 문화예술교육 시리즈 2부 열아홉 첫사랑'","<STRONG>EBS 문화예술교육 시리즈 2부 열아홉 첫사랑'</STRONG><BR><BR>예술가를 꿈꾸며 올해 큰 관문을 앞둔 열아홉 고3생들의 여름방학을 통해 <BR>예술 교육이 사람들이 어떻게 변화시킬 것인가에 대한 문제를 생각해 본다.","2009-11-01 00:05:00.0","2010-11-05 13:34:03","EBS","2010/11/05","","EBS 문화예술교육 시리즈 2부 열아홉 첫사랑'","201011051217553927|1|5800032086998.wmv|99862084","교육","일반교육"