법적구분,용도구분,측정지역,지역구분,측정지점,하반기(낮시간대),하반기(밤시간대)
가,종합병원,남구 양림동,일반,양림로 37(기독병원 장례식장 앞),58,50
가,종합병원,남구 양림동,일반,양림로 37(기독병원로비 앞),60,51
가,종합병원,남구 양림동,일반,백양로89번길 12,50,44
가,종합병원,남구 양림동,도로,양림로 40,63,54
가,종합병원,남구 양림동,도로,백서로 14,57,46
가,학교,동구 동명동,일반,장동로 23-16,56,53
가,학교,동구 동명동,일반,장동로 32,54,51
가,학교,동구 동명동,일반,제봉로82번길 26,51,47
가,학교,동구 동명동,도로,제봉로110번길 10,54,51
가,학교,동구 동명동,도로,백서로 208,61,52
나,일반주거지역,북구 동운동,일반,서강로54번길 10,52,44
나,일반주거지역,북구 동운동,일반,대자로 57,55,49
나,일반주거지역,북구 동운동,일반,북문대로98번길 50,51,43
나,일반주거지역,북구 동운동,도로,서강로54번길 30,61,56
나,일반주거지역,북구 동운동,도로,북문대로98번길 33,57,53
나,준주거지역,서구 농성동,일반,화정로279번길 20-1,53,45
나,준주거지역,서구 농성동,일반,대남대로450번길 4-1,53,50
나,준주거지역,서구 농성동,일반,화정로 280번길 3,52,45
나,준주거지역,서구 농성동,도로,대남대로 465,69,67
나,준주거지역,서구 농성동,도로,대남대로 432,69,65
다,상업지역,광산구 송정동,일반,광산로20번길 37,55,48
다,상업지역,광산구 송정동,일반,광산로 41,64,61
다,상업지역,광산구 송정동,일반,광산로68번길 13,54,45
다,상업지역,광산구 송정동,도로,상무대로  201,64,62
다,상업지역,광산구 송정동,도로,상무대로 338,67,63
라,일반공업지역,광산구 평동공단,일반,평동산단2번로 39,56,46
라,일반공업지역,광산구 평동공단,일반,평동로803번길 83-38,63,59
라,일반공업지역,광산구 평동공단,일반,평동산단로 239-15,60,51
라,일반공업지역,광산구 평동공단,도로,평동산단2번로 189,65,55
라,일반공업지역,광산구 평동공단,도로,평동로 841,69,60
